{
  "title": "ADEGUATA VERIFICA",
  "button_back": "Torna a elenco pratiche'",
  "button_invia": "Invia AV",

  "adeguata_verifica": {
    "title_section": "ADEGUATA VERIFICA",
    "conoscenza_cliente": {
      "title_accordion": "Conoscenza del cliente",
      "input_anni": {
        "type": "text",
        "title": "Da quanti anni conosci il Cliente? *",
        "label": "Anni",
        "defaultValue": 2
      },
      "radio_primo_contatto": {
        "type": "radio",
        "title": "Come hai conosciuto il Cliente? *",
        "name": "primo_contatto",
        "options": [
          {"value":"spontaneamente", "label": "Presentandosi spontaneamente"},
          {"value":"professionale", "label": "Canale professionale"},
          {"value":"privato", "label": "Canale privato"}
        ]
      },
      "yes_no_questions_contesto_famiglia": {
        "type": "yes_no",
        "questions": [
          {"value":null, "label": "Conosci il contesto familiare del Cliente?"}
        ]
      },
      "input_num_componenti": {
        "type": "text",
        "title": "Quanti sono i componenti del nucleo familiare? *",
        "label": "Num. componenti",
        "defaultValue": 2
      },
      "radio_tenore_vita": {
        "type": "radio",
        "title": "Qual è il tenore di vita del Cliente? *",
        "name": "tenore_vita",
        "options": [
          {"value":"alto", "label": "Alto"},
          {"value":"medio", "label": "Medio"},
          {"value":"basso", "label": "Basso"}
        ]
      }
    },
    "info_contesto": {
      "title_accordion": "Informazioni di contesto",
      "radio_ragionevolezza_attivita": {
        "type": "radio",
        "title": "Ragionevolezza dell’accensione del rapporto in relazione all’attività svolta dal Cliente *",
        "name": "ragionevolezza_attivita",
        "options": [
          {"value":"giustificato", "label": "giustificato"},
          {"value":"non_giustificato", "label": "Non giustificato"}
        ]
      },
      "radio_ragionevolezza_residenza": {
        "type": "radio",
        "title": "Ragionevolezza dell’accensione del rapporto in relazione alla residenza/domicilio del cliente e alla zona di operatività del CF *",
        "name": "ragionevolezza_residenza",
        "options": [
          {"value":"giustificato", "label": "giustificato"},
          {"value":"non_giustificato", "label": "Non giustificato"}
        ]
      },
      "radio_comportamento": {
        "type": "radio",
        "title": "Comportamento del cliente in fase di apertura rapporto *",
        "name": "comportamento",
        "options": [
          {"value":"norma", "label": "Nella norma"},
          {"value":"fuori_norma", "label": "Fuori dalla norma"}
        ]
      },
      "yes_no_questions_info": {
        "type": "yes_no",
        "questions": [
          {"value":null, "label": "Presenza di soggetti terzi non giustficata*"},
          {"value":null, "label": "Le informazioni ricevute dal cliente, in base agli elementi conosciuti, sono da ritenersi attendibili?*"},
          {"value":null, "label": "In base ai dati e alle informazioni disponibili, si ravvisano elementi di sospettosità ai fini di riciclaggio e/o finanziamento di terrorismo?*"}
        ]
      },
      "radio_rischio_riciclaggio": {
        "type": "radio",
        "title": "In base alle informazioni disponibili e a quanto comunque noto circa l’intenzione o la finalità perseguita, il grado di rischio di riciclaggio ateribuibile al Cliente da parte del ConsulenteFinanziario é:*",
        "name": "rischio_riciclaggio",
        "options": [
          {"value":"alto", "label": "Alto"},
          {"value":"medio", "label": "Medio"},
          {"value":"basso", "label": "Basso"}
        ]
      },
      "input_textarea_motivazioni": {
        "type": "textarea",
        "label": "Motivazioni rischio *",
        "help_text": "In caso di valutazione del rischio medio/alto compilare con le relative motivazioni"
      }
    }
  }
}
